Chapter 6 Neural Network | Analyzing the Highlighted Art Pieces and Possible Biases at the Metropolitan Art Museum
…
- it doesn’t have a country of origin, classification, or city listed

- it is not in the costume institute

- it has no nationality listed

- it is not in the Egyptian Art, Costume Institute, European Decorative/Sculptural arts, or photographs department

- it is not a photograph or a painting

That is a lot of double negatives! Whew!

In summary, it is more likely to be a highlight if it is not in the Asian Art department, it is oil on canvas, it has a stated culture, it is a painting, it has a nationality, it is not a print, and it was not made by a French or American person.

## # A tibble: 744 × 2
##    Positive Negative
##       <dbl>    <dbl>
##  1        1        0
##  2        1        0
##  3        1        0
##  4        1        0
##  5        1        0
##  6        1        0
##  7        1        0
##  8        1        0
##  9        1        0
## 10        1        0
## # … with 734 more rows
…
